Name,Age,Company,Building_Code,Phone_Number,Address
Ojaswini Nehru,32,"Nambeesan, Bhat and Dutta",735,846.054.0128,"27745 Embranthiri Track, Visakhapatnam, PB 781767"
Govinda Reddy,80,Chaturvedi-Kocchar,1979,717-130-3386,"Suite 497 8432 Khanna Brooks, Kolkata, GJ 709010"
Lakshman Mishra,31,Achari Group,464,539.655.9214,"43517 Deshpande Gardens, Kolkata, CG 387233"
Bhoopat Mishra,93,Shah Corp,411,523-042-4323,"Suite 083 917 Varalakshmi Vista, Visakhapatnam, TR 547784"
Anilabh Namboothiri,61,"Verma, Varma and Panicker",823,(116) 864-5836,"Suite 567 41584 Anang River, Bengaluru, RJ 286503"
Anila Jha,54,"Marar, Namboothiri and Varman",232,(056) 656-1272,"0759 Uttam Causeway, Visakhapatnam, PY 101296"
Miss Diptendu Joshi,21,Achari-Desai,5016,004-731-8134,"Apt. 845 9699 Chetanaanand Prairie, Mumbai, HP 696276"
Kanti Bhat,21,Jain-Asan,6012,(267) 775-5839,"Apt. 074 136 Gaurang Inlet, Thiruvananthapuram, DD 669989"
Ujjwal Pilla,47,Butt Brothers,467,1-404-057-2930,"Apt. 291 0770 Kocchar Brook, Bengaluru, GJ 255855"
Mr. Javas Sinha,56,Panicker Brothers,7334,731.756.6314,"Apt. 513 36937 Dhawan Wells, Thiruvananthapuram, OR 693765"
Tara Desai,32,Gowda-Embranthiri,7970,(921) 660-2174,"57201 Anila Locks, Kolkata, KL 703613"
