Name,Age,Company,Building_Code,Phone_Number,Address
Goswami Saini,73,Panicker and Sons,7611,(511) 064-0090,"2860 Nehru Glens, Chennai, SK 193062"
Akshat Mehrotra II,91,Bharadwaj-Mukhopadhyay,48786,1-704-129-8749,"573 Panicker Valley, Thiruvananthapuram, AP 711073"
Kalpana Mehra,95,Guneta-Agarwal,77972,1-558-819-5972,"Suite 980 53088 Nambeesan Mission, Chennai, UK 925585"
Mrs. Siddarth Guneta,84,Butt Brothers,338,1-438-306-0413,"003 Dayaamay Island, Hyderabad, LD 731077"
Miss Gautam Menon,39,"Naik, Kakkar and Ahluwalia",97119,1-039-686-8184,"Apt. 202 674 Draupadi Divide, Mumbai, KA 271887"
Dr. Sarvin Gill,86,Acharya-Achari,2357,409.921.8539,"33044 Johar Via, Hyderabad, RJ 727099"
Divakar Nayar,77,Adiga Brothers,491,043.094.1048,"0608 Bandopadhyay Ports, Kolkata, TN 840498"
Chaaruchandra Dubashi II,45,Singh-Chaturvedi,221,520-984-8274,"Apt. 471 9345 Bhattathiri Ville, Visakhapatnam, MP 622326"
Shantanu Ganaka,22,"Khatri, Kocchar and Mukhopadhyay",919,(338) 267-5620,"Apt. 765 50464 Gopee Parkways, Thiruvananthapuram, DD 454868"
Dhyaneshwar Bhattacharya,92,Bhat-Gowda,74563,(225) 079-2586,"811 Chakravartee Road, Chennai, JS 492861"
Chatura Sharma V,58,"Ahuja, Somayaji and Desai",55746,507-840-3201,"Suite 421 306 Chandranath Union, New Delhi, GA 114445"
