Name,Age,Company,Building_Code,Phone_Number,Address
Aagney Abbott,99,"Jain, Gandhi and Iyer",8978,072.523.5699,"04555 Aalok Avenue, Hyderabad, HR 099642"
Ms. Girindra Tandon,88,"Menon, Ahluwalia and Bhattacharya",11810,1-121-367-6347,"485 Apsara Flat, Thiruvananthapuram, DN 268844"
Kamala Dwivedi,66,Ganaka-Gupta,7134,512.489.5694,"5664 Mahajan Well, Bengaluru, OR 225411"
Sharmila Jha,36,"Iyengar, Khatri and Pothuvaal",25601,924-967-2824,"Suite 778 059 Chiranjeev Stream, Visakhapatnam, KL 679801"
Buddhana Gowda,23,Rana Corp,1545,218.685.4334,"1099 Tandon Shores, Bengaluru, AR 792843"
Vasudha Chopra,91,Pillai-Kaniyar,1400,258.605.7137,"Suite 561 61443 Kama Grove, Mumbai, JK 425559"
Anuja Mehra,74,Achari-Menon,41616,(527) 233-4672,"Suite 751 6593 Dayaananda Shore, Mumbai, AP 837221"
Balachandra Iyengar,57,Dwivedi-Iyer,19776,(403) 976-0963,"Apt. 880 059 Rukhmani Lake, Visakhapatnam, CH 787744"
Gurdev Banerjee,41,Bandopadhyay-Ahuja,4438,(769) 214-9526,"72009 Pothuvaal Landing, Kolkata, GJ 306010"
Aayushman Chaturvedi,92,Pilla Brothers,031,925.152.3440,"Suite 158 691 Bhagavaan Roads, Mumbai, KA 658398"
Bhaasvan Desai,77,Tandon-Dubashi,68575,1-647-916-9668,"Apt. 144 968 Achari Loop, Chennai, SK 776359"
