Name,Age,Company,Building_Code,Phone_Number,Address
Bhaumik Gill Jr.,20,"Kapoor, Naik and Kaniyar",7810,905-718-3397,"Apt. 093 026 Girika Flats, New Delhi, KL 591624"
Kumar Verma Sr.,88,"Pilla, Banerjee and Patel",077,(159) 247-6113,"Suite 776 61933 Prasad Oval, Kolkata, GJ 403501"
Dhyaneshwar Mehra IV,24,Bhattacharya-Adiga,51897,873.565.5568,"Suite 124 269 Sinha Prairie, Mumbai, GJ 622717"
Devak Mehrotra,59,"Nehru, Arora and Joshi",528,1-450-502-8130,"Apt. 559 6120 Kalpana Pike, Mumbai, MP 523566"
Amarnath Gowda,65,"Adiga, Tagore and Sinha",576,186-755-1164,"25901 Dwaipayana Rapids, Chennai, UK 266171"
Karthik Acharya,74,"Shukla, Talwar and Sethi",048,(451) 608-9985,"Suite 188 11687 Dhawan Divide, Mumbai, UP 017117"
Vijay Kapoor,84,Kocchar Pvt Ltd,2042,587.895.0658,"Apt. 968 4501 Achari Mills, Chennai, OR 176746"
Omana Khanna DVM,71,Kaur-Tandon,580,177.752.1239,"Apt. 488 89451 Baala Lakes, Mumbai, KL 544965"
Miss Anila Prajapat,76,"Patil, Somayaji and Guneta",052,1-256-092-1368,"5398 Marar Dam, New Delhi, CG 639153"
Anand Khanna,20,Ahuja-Mishra,41299,230.568.2550,"Suite 523 7052 Girija Glens, Kolkata, JS 686460"
Alok Chattopadhyay,81,Nayar-Reddy,560,(147) 779-4914,"Suite 135 781 Acaryatanaya Manors, Bengaluru, KA 629823"
