Name,Age,Company,Building_Code,Phone_Number,Address
Rameshwar Mishra,27,"Khanna, Jha and Gowda",2450,495.916.7257,"Suite 625 93330 Mina Mills, Kolkata, AP 920978"
Parvati Desai,47,Kaur-Nayar,15663,(205) 120-8012,"7381 Devak Street, New Delhi, AR 602017"
Dev Banerjee,61,Butt Ltd,10493,603-823-9547,"Apt. 245 293 Shah Mission, Thiruvananthapuram, DN 389020"
Dr. Shashi Acharya,64,Butt-Bharadwaj,915,610-435-9183,"80456 Chaten Manor, Thiruvananthapuram, NL 872851"
Anaadi Bharadwaj,40,"Guha, Iyer and Deshpande",208,721.575.5984,"77474 Gowda Points, New Delhi, WB 437124"
Archan Bhattacharya,36,Mahajan-Desai,476,504.785.8658,"Apt. 316 91244 Bodhan Run, New Delhi, HP 717949"
Raj Khan,86,Abbott-Prajapat,564,1-632-685-4555,"Suite 332 6013 Bandopadhyay Court, Bengaluru, DD 658607"
Chidananda Gowda PhD,66,Talwar Ltd,083,1-950-589-2360,"Suite 467 634 Darshan Cliffs, Thiruvananthapuram, MN 297557"
Radha Saini,26,Adiga-Bhat,48624,(935) 027-1578,"Suite 307 0070 Arnesh Junctions, New Delhi, HR 268570"
Mr. Baala Kaniyar,40,Menon-Acharya,3627,1-544-219-4804,"027 Smriti Flat, New Delhi, RJ 064923"
Ms. Girika Kaniyar,62,"Gupta, Nair and Talwar",963,(725) 895-7537,"709 Arora Fords, Bengaluru, GA 072946"
