Name,Age,Company,Building_Code,Phone_Number,Address
Hiranya Prajapat,69,Verma-Shah,917,1-744-216-0300,"0962 Khatri Divide, Visakhapatnam, AP 938834"
Giriraaj Iyengar,32,"Iyengar, Chopra and Kakkar",5630,(240) 803-3391,"Suite 256 22451 Bhattacharya Rue, Mumbai, TN 426433"
Chandini Banerjee,51,Butt-Sharma,50994,333-813-5630,"Apt. 143 10648 Somayaji Manors, Chennai, MP 497356"
Dipendra Gandhi,80,Embranthiri Limited,09603,(128) 597-5100,"Suite 319 405 Shridevi Island, Kolkata, AN 278954"
Dr. Kanishka Chopra,71,Gowda-Marar,759,772-717-4945,"5184 Guneta Lodge, Mumbai, MH 640584"
Dhanpati Gandhi II,63,Chaturvedi Limited,22823,215-604-2971,"Apt. 604 500 Butt Trafficway, Visakhapatnam, AR 070422"
Chandramauli Trivedi,53,Kaul Ltd,677,1-648-810-6063,"Apt. 170 1840 Gautam Cliffs, Thiruvananthapuram, PB 334729"
Chiranjeeve Pilla,77,Adiga-Tandon,6878,464.513.8449,"93294 Embranthiri Roads, New Delhi, PB 904779"
Mr. Bhanumati Abbott,42,"Trivedi, Guha and Varrier",747,582-743-7431,"83297 Panicker Knolls, Thiruvananthapuram, KL 999366"
Miss Suma Mishra,33,Dubashi Group,33063,054.528.1668,"Apt. 252 797 Gill Drives, Visakhapatnam, SK 488102"
Ms. Vaishno Sinha,86,Varrier-Shukla,2149,499-712-5740,"Apt. 183 73282 Aanjaneya Plaza, New Delhi, MP 423908"
