Name,Age,Company,Building_Code,Phone_Number,Address
Indira Mehrotra,98,"Gowda, Naik and Shukla",354,(935) 263-5973,"Suite 217 58855 Daksha Pines, Mumbai, CH 853421"
Dr. Manjusha Butt,98,"Chattopadhyay, Naik and Gowda",683,1-602-950-0383,"33312 Bhargava Vista, Visakhapatnam, CH 813237"
Basanti Kocchar,36,"Khan, Butt and Mehrotra",308,358.772.2780,"91972 Kaniyar Lights, New Delhi, UK 399316"
Ananta Embranthiri,37,"Khan, Dwivedi and Kaur",2332,(255) 523-8228,"9268 Varrier Ports, Visakhapatnam, JK 929319"
Avantika Tagore,97,"Pothuvaal, Nair and Dubashi",65061,(482) 833-7032,"11923 Banerjee Circle, Thiruvananthapuram, UK 936830"
Ms. Avani Deshpande,75,Banerjee-Varma,30847,579.814.7201,"692 Dutta Spur, New Delhi, AP 906450"
Damodara Naik,71,Iyer Limited,8202,(008) 142-8450,"232 Gowda Lock, Bengaluru, AN 545527"
Dayamayee Abbott,23,Marar-Dubashi,15512,654.546.9032,"Suite 342 9493 Abhirath Via, Visakhapatnam, HP 297587"
Devdan Chattopadhyay,81,Nambeesan-Trivedi,424,761-356-2669,"2463 Dhananjay Camp, Bengaluru, ML 720190"
Bhamini Mehra,82,"Chattopadhyay, Bandopadhyay and Gupta",963,493-439-9174,"45473 Iyengar Way, Visakhapatnam, JK 395826"
Atreyee Banerjee,62,"Talwar, Mehra and Mehrotra",4078,1-277-748-1022,"94658 Varman Plains, Chennai, CH 439636"
